%YAML 1.1
%TAG !u! tag:unity3d.com,2011:
--- !u!114 &11400000
MonoBehaviour:
  m_ObjectHideFlags: 0
  m_CorrespondingSourceObject: {fileID: 0}
  m_PrefabInternal: {fileID: 0}
  m_GameObject: {fileID: 0}
  m_Enabled: 1
  m_EditorHideFlags: 0
  m_Script: {fileID: 11500000, guid: ae0543fe805424df99fe08ce744cbe49, type: 3}
  m_Name: Clubmoss
  m_EditorClassIdentifier: 
  m_PoseEntries:
  - path: bones/root
    localPosition: {x: 0.11722844, y: 2.509356, z: 2.503642}
    localRotation: {x: 0, y: 0, z: 0.70723015, w: 0.7069834}
    localScale: {x: 1, y: 1, z: 1}
  - path: bones/root/root (1)
    localPosition: {x: 0, y: 0, z: -0.005}
    localRotation: {x: -0.0000000210771, y: -0.000000021069745, z: 0.00000008940696,
      w: 1}
    localScale: {x: 1, y: 1, z: 1}
  - path: bones/root/0
    localPosition: {x: -0.081668235, y: -0.00095497817, z: -0.15137434}
    localRotation: {x: -0, y: -0, z: 0.010820866, w: 0.99994147}
    localScale: {x: 1, y: 1, z: 1}
  - path: bones/root/0/1
    localPosition: {x: 1.77, y: 0.00000071525574, z: 0}
    localRotation: {x: 0, y: 0, z: -0.011518833, w: 0.99993366}
    localScale: {x: 1, y: 1, z: 1}
  - path: bones/root/0/1/2
    localPosition: {x: 1.5999991, y: 0.00000043397722, z: 0}
    localRotation: {x: 0, y: 0, z: 0.004974182, w: 0.99998766}
    localScale: {x: 1, y: 1, z: 1}
  - path: bones/root/0/1/2/3
    localPosition: {x: 1.8100001, y: -0.00000032478192, z: 0.00000071525574}
    localRotation: {x: 0, y: 0, z: 0.008988329, w: 0.99995965}
    localScale: {x: 1, y: 1, z: 1}
  - path: bones/root/0/1/2/3/4
    localPosition: {x: 1.8200026, y: -0.0000010802678, z: 0}
    localRotation: {x: 0, y: 0, z: 0.011257162, w: 0.99993664}
    localScale: {x: 1, y: 1, z: 1}
  - path: bones/root/0/1/2/3/4/4
    localPosition: {x: 0, y: 0, z: -0.005}
    localRotation: {x: -0.000000010273305, y: 0.000000010793692, z: -0.00000011362134,
      w: 1}
    localScale: {x: 1, y: 1, z: 1}
  - path: bones/root/0/1/2/3/4/5
    localPosition: {x: 1.78, y: 0, z: 0.06}
    localRotation: {x: 0, y: 0, z: 0, w: 1}
    localScale: {x: 1, y: 1, z: 1}
  - path: bones/root/0/1/2/3/4/5/5 (1)
    localPosition: {x: -0, y: 0, z: -0.05}
    localRotation: {x: -0.000000084267995, y: 0.0000000020815503, z: 0.000000005587935,
      w: 1}
    localScale: {x: 1, y: 1, z: 1}
  - path: bones/root/0/1/2/3/3
    localPosition: {x: 0, y: 0, z: -0.005}
    localRotation: {x: -0.000000010394158, y: 0.0000000106773586, z: -0.00000009872017,
      w: 1}
    localScale: {x: 1, y: 1, z: 1}
  - path: bones/root/0/1/2/2
    localPosition: {x: 0, y: 0, z: -0.005}
    localRotation: {x: -0.000000010489712, y: 0.000000010583503, z: -0.00000007916241,
      w: 1}
    localScale: {x: 1, y: 1, z: 1}
  - path: bones/root/0/1/1
    localPosition: {x: 0, y: 0, z: -0.005}
    localRotation: {x: 0.000000010531194, y: 0.000000010542226, z: -0.00000006146728,
      w: 1}
    localScale: {x: 1, y: 1, z: 1}
  - path: bones/root/0/0 (1)
    localPosition: {x: 0, y: 0, z: -0.005}
    localRotation: {x: -0, y: -0, z: -0.000000059604645, w: 1}
    localScale: {x: 1, y: 1, z: 1}
