%YAML 1.1
%TAG !u! tag:unity3d.com,2011:
--- !u!114 &11400000
MonoBehaviour:
  m_ObjectHideFlags: 0
  m_CorrespondingSourceObject: {fileID: 0}
  m_PrefabInternal: {fileID: 0}
  m_GameObject: {fileID: 0}
  m_Enabled: 1
  m_EditorHideFlags: 0
  m_Script: {fileID: 11500000, guid: ae0543fe805424df99fe08ce744cbe49, type: 3}
  m_Name: frontBranchCycad
  m_EditorClassIdentifier: 
  m_PoseEntries:
  - path: bones/0
    localPosition: {x: 0.4246027, y: 0.13025288, z: -0.65911436}
    localRotation: {x: 0, y: 0, z: 0.92391044, w: 0.38260883}
    localScale: {x: 1, y: 1, z: 1}
  - path: bones/0/1
    localPosition: {x: 0.18000019, y: 0.00000016391277, z: 0.00000017881393}
    localRotation: {x: 0, y: 0, z: 0.5818136, w: 0.8133221}
    localScale: {x: 1, y: 1, z: 1}
  - path: bones/0/1/2
    localPosition: {x: 0.25999972, y: -0.00000011920929, z: 0}
    localRotation: {x: 0, y: 0, z: 0.33611694, w: 0.9418203}
    localScale: {x: 1, y: 1, z: 1}
  - path: bones/0/1/2/3
    localPosition: {x: 0.54999983, y: 0.00000017136335, z: 0}
    localRotation: {x: 0, y: 0, z: -0.079322115, w: -0.996849}
    localScale: {x: 1, y: 1, z: 1}
  - path: bones/0/1/2/3/4
    localPosition: {x: 0.6899997, y: 0.00000029127114, z: 0}
    localRotation: {x: 0, y: 0, z: 0.08385962, w: 0.99647766}
    localScale: {x: 1, y: 1, z: 1}
