%YAML 1.1
%TAG !u! tag:unity3d.com,2011:
--- !u!114 &11400000
MonoBehaviour:
  m_ObjectHideFlags: 0
  m_CorrespondingSourceObject: {fileID: 0}
  m_PrefabInternal: {fileID: 0}
  m_GameObject: {fileID: 0}
  m_Enabled: 1
  m_EditorHideFlags: 0
  m_Script: {fileID: 11500000, guid: ae0543fe805424df99fe08ce744cbe49, type: 3}
  m_Name: HylonomusBody
  m_EditorClassIdentifier: 
  m_PoseEntries:
  - path: Bones/abdomen
    localPosition: {x: -2.373314, y: 0.33755934, z: 0}
    localRotation: {x: -0, y: -0, z: 0.08386943, w: 0.9964768}
    localScale: {x: 1, y: 1, z: 1}
  - path: Bones/abdomen/thorax
    localPosition: {x: 1.87, y: 0.0000000069849193, z: 0}
    localRotation: {x: 0, y: 0, z: -0.18325484, w: 0.9830655}
    localScale: {x: 1, y: 1, z: 1}
  - path: Bones/abdomen/thorax/neck
    localPosition: {x: 2.2199988, y: 0.0000000037252903, z: 0}
    localRotation: {x: 0, y: 0, z: 0.18858053, w: 0.9820578}
    localScale: {x: 1, y: 1, z: 1}
  - path: Bones/abdomen/thorax/neck/neck
    localPosition: {x: 0, y: 0, z: -0.01}
    localRotation: {x: -0, y: -0, z: -0.000000014901156, w: 1}
    localScale: {x: 1, y: 1, z: 1}
  - path: Bones/abdomen/thorax/lungs
    localPosition: {x: 0.63539755, y: -1.0507355, z: 0}
    localRotation: {x: 0, y: 0, z: 0.15425192, w: 0.98803157}
    localScale: {x: 1, y: 1, z: 1}
  - path: Bones/abdomen/thorax/lungs/lungs
    localPosition: {x: 0, y: -0, z: -0.01}
    localRotation: {x: -0, y: -0, z: -0.000000029802315, w: 1}
    localScale: {x: 1, y: 1, z: 1}
  - path: Bones/abdomen/thorax/thorax
    localPosition: {x: 0, y: 0, z: -0.01}
    localRotation: {x: -0, y: -0, z: -0.000000014901158, w: 1}
    localScale: {x: 1, y: 1, z: 1}
  - path: Bones/abdomen/abdomen
    localPosition: {x: 0, y: 0, z: -0.01}
    localRotation: {x: -0, y: -0, z: -0, w: 1}
    localScale: {x: 1, y: 1, z: 1}
  - path: Bones/abdomen/rear
    localPosition: {x: -0.050381027, y: -0.0074008997, z: 0}
    localRotation: {x: -0, y: -0, z: -0.08386943, w: 0.9964768}
    localScale: {x: 1, y: 1, z: 1}
