%YAML 1.1
%TAG !u! tag:unity3d.com,2011:
--- !u!114 &11400000
MonoBehaviour:
  m_ObjectHideFlags: 0
  m_CorrespondingSourceObject: {fileID: 0}
  m_PrefabInternal: {fileID: 0}
  m_GameObject: {fileID: 0}
  m_Enabled: 1
  m_EditorHideFlags: 0
  m_Script: {fileID: 11500000, guid: ae0543fe805424df99fe08ce744cbe49, type: 3}
  m_Name: RatArmIdle
  m_EditorClassIdentifier: 
  m_PoseEntries:
  - path: Arm
    localPosition: {x: 0.13027608, y: 1.0092145, z: 0}
    localRotation: {x: 0, y: 0, z: -0.40286645, w: 0.9152588}
    localScale: {x: 1, y: 1, z: 1}
  - path: Arm/Forearm
    localPosition: {x: 0.93999994, y: 0.00000011920929, z: 0}
    localRotation: {x: 0, y: 0, z: -0.455898, w: -0.89003205}
    localScale: {x: 1, y: 1, z: 1}
  - path: Arm/Forearm/Hand
    localPosition: {x: 0.7700001, y: 0, z: 0}
    localRotation: {x: 0, y: 0, z: -0.39892396, w: 0.9169841}
    localScale: {x: 1, y: 1, z: 1}
  - path: Arm/Forearm/Hand/Fingers
    localPosition: {x: 0.43000022, y: -0.00000008568168, z: 0}
    localRotation: {x: 0, y: 0, z: 0.33478144, w: -0.94229585}
    localScale: {x: 1, y: 1, z: 1}
