%YAML 1.1
%TAG !u! tag:unity3d.com,2011:
--- !u!114 &11400000
MonoBehaviour:
  m_ObjectHideFlags: 0
  m_CorrespondingSourceObject: {fileID: 0}
  m_PrefabInternal: {fileID: 0}
  m_GameObject: {fileID: 0}
  m_Enabled: 1
  m_EditorHideFlags: 0
  m_Script: {fileID: 11500000, guid: ae0543fe805424df99fe08ce744cbe49, type: 3}
  m_Name: RatHead
  m_EditorClassIdentifier: 
  m_PoseEntries:
  - path: Bones/1
    localPosition: {x: -0.003787011, y: -0.4920144, z: 0}
    localRotation: {x: 0, y: 0, z: 0.17828283, w: 0.9839793}
    localScale: {x: 1, y: 1, z: 1}
  - path: Bones/1/2
    localPosition: {x: 0.4, y: 0, z: 0}
    localRotation: {x: 0, y: 0, z: -0.12865762, w: 0.9916891}
    localScale: {x: 1, y: 1, z: 1}
