%YAML 1.1
%TAG !u! tag:unity3d.com,2011:
--- !u!114 &11400000
MonoBehaviour:
  m_ObjectHideFlags: 0
  m_CorrespondingSourceObject: {fileID: 0}
  m_PrefabInternal: {fileID: 0}
  m_GameObject: {fileID: 0}
  m_Enabled: 1
  m_EditorHideFlags: 0
  m_Script: {fileID: 11500000, guid: ae0543fe805424df99fe08ce744cbe49, type: 3}
  m_Name: SharkLeg
  m_EditorClassIdentifier: 
  m_PoseEntries:
  - path: bones/0 leg
    localPosition: {x: -0.010875797, y: 0.08012833, z: -0.037457623}
    localRotation: {x: 0, y: 0, z: 0.19372068, w: 0.98105675}
    localScale: {x: -0.033517398, y: 0.1229462, z: -1}
  - path: bones/0 leg/1
    localPosition: {x: 0.9999946, y: 0.0000004810153, z: 0}
    localRotation: {x: 0, y: 0, z: -0.017277958, w: 0.99985075}
    localScale: {x: 2.0172, y: 1, z: 1}
  - path: bones/0 leg/1/2
    localPosition: {x: 0.99999803, y: 0.0000013261051, z: 0}
    localRotation: {x: 0, y: 0, z: 0.028270576, w: 0.9996003}
    localScale: {x: 2.9735, y: 1, z: 1}
  - path: bones/0 leg/1/2/2
    localPosition: {x: 0, y: 0, z: 0.05}
    localRotation: {x: -0, y: -0, z: -0.000000007450581, w: 1}
    localScale: {x: 1, y: 1, z: 1}
  - path: bones/0 leg/1/1
    localPosition: {x: 0, y: 0, z: 0.05}
    localRotation: {x: -0, y: -0, z: -0.000000013038514, w: 1}
    localScale: {x: 1, y: 1, z: 1}
  - path: bones/0 leg/0 leg (1)
    localPosition: {x: 0, y: 0, z: 0.05}
    localRotation: {x: -0, y: 0, z: 0, w: 1}
    localScale: {x: 1, y: 1, z: 1}
