%YAML 1.1
%TAG !u! tag:unity3d.com,2011:
--- !u!221 &22100000
AnimatorOverrideController:
  m_ObjectHideFlags: 0
  m_CorrespondingSourceObject: {fileID: 0}
  m_PrefabInternal: {fileID: 0}
  m_Name: armMonkey
  m_Controller: {fileID: 9100000, guid: c17cfce4da920a84c95dccae03950f15, type: 2}
  m_Clips:
  - m_OriginalClip: {fileID: 7400000, guid: 8a835914d630c8e409a88ca193229a78, type: 2}
    m_OverrideClip: {fileID: 7400000, guid: 158858bd34978e04e86c495adcec6d8a, type: 2}
  - m_OriginalClip: {fileID: 7400000, guid: 1d2a27a21157a4e46bb7b1001451194d, type: 2}
    m_OverrideClip: {fileID: 7400000, guid: b44141492a3e6e04dae2fe6cca8b5791, type: 2}
  - m_OriginalClip: {fileID: 7400000, guid: 93648a05d924f6b44b42b7a9026a146e, type: 2}
    m_OverrideClip: {fileID: 7400000, guid: cb46cc94cbb635047946440e615f6a8b, type: 2}
