%YAML 1.1
%TAG !u! tag:unity3d.com,2011:
--- !u!221 &22100000
AnimatorOverrideController:
  m_ObjectHideFlags: 0
  m_CorrespondingSourceObject: {fileID: 0}
  m_PrefabInternal: {fileID: 0}
  m_Name: headSailfish
  m_Controller: {fileID: 9100000, guid: c17cfce4da920a84c95dccae03950f15, type: 2}
  m_Clips:
  - m_OriginalClip: {fileID: 7400000, guid: 02c8a050bb315ef408689dbad7d4dc15, type: 2}
    m_OverrideClip: {fileID: 7400000, guid: 3bb7665dd9655b742897beff1be5629d, type: 2}
