%YAML 1.1
%TAG !u! tag:unity3d.com,2011:
--- !u!221 &22100000
AnimatorOverrideController:
  m_ObjectHideFlags: 0
  m_CorrespondingSourceObject: {fileID: 0}
  m_PrefabInternal: {fileID: 0}
  m_Name: legGazelle
  m_Controller: {fileID: 9100000, guid: c17cfce4da920a84c95dccae03950f15, type: 2}
  m_Clips:
  - m_OriginalClip: {fileID: 7400000, guid: 1d2a27a21157a4e46bb7b1001451194d, type: 2}
    m_OverrideClip: {fileID: 7400000, guid: cd34d93c38d405846b297edac5c5dccb, type: 2}
  - m_OriginalClip: {fileID: 7400000, guid: 8a835914d630c8e409a88ca193229a78, type: 2}
    m_OverrideClip: {fileID: 7400000, guid: 2ffe56c06cd71c842a0b8d93087cef62, type: 2}
