%YAML 1.1
%TAG !u! tag:unity3d.com,2011:
--- !u!221 &22100000
AnimatorOverrideController:
  m_ObjectHideFlags: 0
  m_CorrespondingSourceObject: {fileID: 0}
  m_PrefabInternal: {fileID: 0}
  m_Name: tailAnkylosaurus
  m_Controller: {fileID: 9100000, guid: c17cfce4da920a84c95dccae03950f15, type: 2}
  m_Clips:
  - m_OriginalClip: {fileID: 7400000, guid: 93648a05d924f6b44b42b7a9026a146e, type: 2}
    m_OverrideClip: {fileID: 7400000, guid: c97a15cb16231de42a780e54c9d121a5, type: 2}
  - m_OriginalClip: {fileID: 7400000, guid: 1d2a27a21157a4e46bb7b1001451194d, type: 2}
    m_OverrideClip: {fileID: 7400000, guid: 6883962f5b56ad24aa9d167986928620, type: 2}
  - m_OriginalClip: {fileID: 7400000, guid: 9de14d316e6d19b4094f828480f829ff, type: 2}
    m_OverrideClip: {fileID: 7400000, guid: 2eaadf078f973cc4c80dfd896551b335, type: 2}
  - m_OriginalClip: {fileID: 7400000, guid: 8a835914d630c8e409a88ca193229a78, type: 2}
    m_OverrideClip: {fileID: 7400000, guid: 54616cf7c9c4b8f4da0719581c48ce17, type: 2}
