%YAML 1.1
%TAG !u! tag:unity3d.com,2011:
--- !u!221 &22100000
AnimatorOverrideController:
  m_ObjectHideFlags: 0
  m_CorrespondingSourceObject: {fileID: 0}
  m_PrefabInternal: {fileID: 0}
  m_Name: cycadBack
  m_Controller: {fileID: 9100000, guid: aead058d49722554cb16fb10ad773cf9, type: 2}
  m_Clips:
  - m_OriginalClip: {fileID: 7400000, guid: df11b558cbb89014e90a5517f7badc05, type: 2}
    m_OverrideClip: {fileID: 7400000, guid: 47dac7e19cabfe94cb9d0fde4b4ae000, type: 2}
  - m_OriginalClip: {fileID: 7400000, guid: 840867ed213448a438e53c96203c62b4, type: 2}
    m_OverrideClip: {fileID: 7400000, guid: 508b84c31a9b8ff458dcb9fcfa13e978, type: 2}
