%YAML 1.1
%TAG !u! tag:unity3d.com,2011:
--- !u!221 &22100000
AnimatorOverrideController:
  m_ObjectHideFlags: 0
  m_CorrespondingSourceObject: {fileID: 0}
  m_PrefabInternal: {fileID: 0}
  m_Name: fernUp
  m_Controller: {fileID: 9100000, guid: aead058d49722554cb16fb10ad773cf9, type: 2}
  m_Clips:
  - m_OriginalClip: {fileID: 7400000, guid: df11b558cbb89014e90a5517f7badc05, type: 2}
    m_OverrideClip: {fileID: 7400000, guid: a7544d8d4b912d7448af69855b712bf4, type: 2}
  - m_OriginalClip: {fileID: 7400000, guid: 840867ed213448a438e53c96203c62b4, type: 2}
    m_OverrideClip: {fileID: 7400000, guid: b0d6e5783f9b9c54fb5b1feef91fa860, type: 2}
